…
# Quick check of number of observations per city
homicide_df |> 
  count(city_state)
```

    ## # A tibble: 47 × 2
    ##    city_state          n
    ##    <chr>           <int>
    ##  1 Albuquerque, NM   174
    ##  2 Atlanta, GA       940
    ##  3 Baltimore, MD    2753
    ##  4 Baton Rouge, LA   409
    ##  5 Birmingham, AL    763
    ##  6 Boston, MA        492
    ##  7 Buffalo, NY       472
    ##  8 Charlotte, NC     571
    ##  9 Chicago, IL      4502
    ## 10 Cincinnati, OH    678
    ## # ℹ 37 more rows
…
